500,500,30000,0.000009,0.003253,0.000005,1.675359
500,500,30000,0.000010,0.003260,0.000005,1.958551
500,500,30000,0.000010,0.003280,0.000007,1.854079
500,500,30000,0.000044,0.005463,0.000058,1.990465
