512,512,262144,0.000011,0.003560,0.000005,16.881725
512,512,262144,0.000008,0.003553,0.000006,16.598011
512,512,262144,0.000009,0.003576,0.000007,16.223605
512,512,262144,0.000008,0.003562,0.000006,16.321976
512,512,262144,0.000008,0.003559,0.000006,15.962011
