512,512,1024,0.000008,0.003703,0.000007,0.061117
512,512,1024,0.000006,0.003578,0.000005,0.060749
512,512,1024,0.000005,0.003574,0.000006,0.060335
512,512,1024,0.000006,0.003568,0.000006,0.080667
512,512,1024,0.000006,0.003574,0.000006,0.061139
