512,512,256,0.003590,0.084894,0.119193,0.001028
512,512,256,0.003582,0.086527,0.119540,0.000908
512,512,256,0.003579,0.086456,0.118234,0.000949
512,512,256,0.003564,0.085642,0.116683,0.001010
512,512,256,0.003571,0.082976,0.116890,0.001024
