500,500,30000,0.003464,0.137365,0.200118,0.037408
500,500,30000,0.003516,0.125365,0.187401,0.037727
500,500,30000,0.003697,0.129179,0.186870,0.037285
500,500,30000,0.003480,0.123318,0.185838,0.037292
