512,512,131072,0.003729,0.278148,0.242884,0.163753
512,512,131072,0.003566,0.272459,0.241711,0.168085
512,512,131072,0.003601,0.277275,0.242708,0.162676
512,512,131072,0.003626,0.277587,0.242374,0.166768
512,512,131072,0.003554,0.272330,0.240705,0.163320
512,512,131072,0.003591,0.279827,0.242933,0.163689
512,512,131072,0.003559,0.275866,0.257469,0.246636
512,512,131072,0.005038,0.277875,0.255731,0.162304
512,512,131072,0.003601,0.279428,0.259147,0.170612
512,512,131072,0.003626,0.277087,0.255876,0.184682
