512,512,2048,0.003606,0.087121,0.120382,0.003642
512,512,2048,0.003612,0.089777,0.120781,0.003588
512,512,2048,0.003605,0.088730,0.122318,0.003638
512,512,2048,0.003596,0.089088,0.121402,0.003667
512,512,2048,0.003583,0.088260,0.121268,0.003573
