512,512,8192,0.093882,0.567024,0.010903
512,512,8192,0.095332,0.565729,0.010567
512,512,8192,0.093927,0.565154,0.010954
512,512,8192,0.096304,0.573965,0.011044
512,512,8192,0.096514,0.566260,0.010963
