512,512,4096,0.091558,0.295619,0.005963
512,512,4096,0.088929,0.290890,0.005607
512,512,4096,0.091334,0.293412,0.005416
512,512,4096,0.091153,0.292450,0.005566
512,512,4096,0.096560,0.294230,0.005575
