512,512,2048,0.088697,0.151731,0.002921
512,512,2048,0.084043,0.151833,0.002888
512,512,2048,0.085665,0.151728,0.002887
512,512,2048,0.084686,0.151712,0.002988
512,512,2048,0.086248,0.151719,0.003074
